client,version,langcode,patched_installer,installer,recommended
msn,140,ar,escargot-wlm-14.0.8117.0416-ar.exe,wlm-14.0.8117.0416-ar.exe,false
msn,85,ar,escargot-wlm-8.5.1302-ar.msi,wlm-8.5.1302-ar.msi,false
msn,81,ar,escargot-wlm-8.1.0178-ar.msi,wlm-8.1.0178-ar.exe,false
msn,75,ar,escargot-msn-7.5.0324-ar.msi,msn-7.5.0324-ar.exe,false
msn,70,ar,escargot-msn-7.0.0816-ar.msi,msn-7.0.0816-ar.exe,false
msn,62,ar,escargot-msn-6.2.0205-ar.msi,msn-6.2.0205-ar.exe,false
msn,50,ar,escargot-msn-5.0.0575-ar.msi,msn-5.0.0575-ar.exe,false
msn,46,ar,,msn-4.6.0084-ar.exe,false
msn,45,ar,,msn-4.5.0127-ar.exe,false
msn,36,ar,,msn-3.6.0039-ar.exe,false
msn,140,bg,escargot-wlm-14.0.8117.0416-bg.exe,wlm-14.0.8117.0416-bg.exe,false
msn,85,bg,escargot-wlm-8.5.1302-bg.msi,wlm-8.5.1302-bg.msi,false
msn,140,ca,escargot-wlm-14.0.8117.0416-ca.exe,wlm-14.0.8117.0416-ca.exe,false
msn,140,cs,escargot-wlm-14.0.8117.0416-cs.exe,wlm-14.0.8117.0416-cs.exe,false
msn,85,cs,escargot-wlm-8.5.1302-cs.msi,wlm-8.5.1302-cs.msi,false
msn,81,cs,escargot-wlm-8.1.0178-cs.msi,wlm-8.1.0178-cs.exe,false
msn,75,cs,escargot-msn-7.5.0324-cs.msi,msn-7.5.0324-cs.exe,false
msn,70,cs,escargot-msn-7.0.0816-cs.msi,msn-7.0.0816-cs.exe,false
msn,50,cs,escargot-msn-5.0.0575-cs.msi,msn-5.0.0575-cs.exe,false
msn,46,cs,,msn-4.6.0084-cs.exe,false
msn,36,cs,,msn-3.6.0039-cs.exe,false
msn,140,da,escargot-wlm-14.0.8117.0416-da.exe,wlm-14.0.8117.0416-da.exe,false
msn,85,da,escargot-wlm-8.5.1302-da.msi,wlm-8.5.1302-da.msi,false
msn,81,da,escargot-wlm-8.1.0178-da.msi,wlm-8.1.0178-da.exe,false
msn,75,da,escargot-msn-7.5.0324-da.msi,msn-7.5.0324-da.exe,false
msn,62,da,escargot-msn-6.2.0208-da.msi,msn-6.2.0208-da.exe,false
msn,50,da,escargot-msn-5.0.0575-da.msi,msn-5.0.0575-da.exe,false
msn,46,da,,msn-4.6.0084-da.exe,false
msn,36,da,,msn-3.6.0039-da.exe,false
msn,140,de,escargot-wlm-14.0.8117.0416-de.exe,wlm-14.0.8117.0416-de.exe,false
msn,85,de,escargot-wlm-8.5.1302-de.msi,wlm-8.5.1302-de.msi,false
msn,81,de,escargot-wlm-8.1.0178-de.msi,wlm-8.1.0178-de.exe,false
msn,75,de,escargot-msn-7.5.0324-de.msi,msn-7.5.0324-de.exe,false
msn,70,de,escargot-msn-7.0.0820-de.msi,msn-7.0.0820-de.exe,false
msn,50,de,escargot-msn-5.0.0575-de.msi,msn-5.0.0575-de.exe,false
msn,46,de,,msn-4.6.0073-de.exe,false
msn,45,de,,msn-4.5.0127-de.exe,false
msn,36,de,,msn-3.6.0039-de.exe,false
msn,140,el,escargot-wlm-14.0.8117.0416-el.exe,wlm-14.0.8117.0416-el.exe,false
msn,85,el,escargot-wlm-8.5.1302-el.msi,wlm-8.5.1302-el.msi,false
msn,81,el,escargot-wlm-8.1.0178-el.msi,wlm-8.1.0178-el.exe,false
msn,75,el,escargot-msn-7.5.0324-el.msi,msn-7.5.0324-el.exe,false
msn,70,el,escargot-msn-7.0.0820-el.msi,msn-7.0.0820-el.exe,false
msn,50,el,escargot-msn-5.0.0540-el.msi,msn-5.0.0540-el.msi,false
msn,46,el,,msn-4.6.0084-el.exe,false
msn,36,el,,msn-3.6.0039-el.exe,false
msn,140,en,escargot-wlm-14.0.8117.0416-en.exe,wlm-14.0.8117.0416-en.exe,false
msn,85,en,escargot-wlm-8.5.1302-en.msi,wlm-8.5.1302-en.msi,false
msn,81,en,escargot-wlm-8.1.0178-en.msi,wlm-8.1.0178-en.exe,false
msn,75,en,escargot-msn-7.5.0324-en.msi,msn-7.5.0324-en.exe,false
msn,70,en,escargot-msn-7.0.0820-en.msi,msn-7.0.0820-en.exe,false
msn,62,en,escargot-msn-6.2.0208-en.msi,msn-6.2.0208-en.exe,false
msn,50,en,escargot-msn-5.0.0575-en.msi,msn-5.0.0575-en.exe,false
msn,46,en,,msn-4.6.0084-en.exe,false
msn,45,en,,msn-4.5.0127-en.exe,false
msn,36,en,,msn-3.6.0039-en.exe,false
msn,22,en,,msn-2.2.1053-en.exe,false
msn,10,en,,msn-1.0.0893-en.exe,false
msn,140,es,escargot-wlm-14.0.8117.0416-es.exe,wlm-14.0.8117.0416-es.exe,false
msn,85,es,escargot-wlm-8.5.1302-es.msi,wlm-8.5.1302-es.msi,false
msn,81,es,escargot-wlm-8.1.0178-es.msi,wlm-8.1.0178-es.exe,false
msn,75,es,escargot-msn-7.5.0324-es.msi,msn-7.5.0324-es.exe,false
msn,70,es,escargot-msn-7.0.0820-es.msi,msn-7.0.0820-es.exe,false
msn,62,es,escargot-msn-6.2.0208-es.msi,msn-6.2.0208-es.exe,false
msn,50,es,escargot-msn-5.0.0575-es.msi,msn-5.0.0575-es.exe,false
msn,46,es,,msn-4.6.0084-es.exe,false
msn,45,es,,msn-4.5.0127-es.exe,false
msn,36,es,,msn-3.6.0039-es.exe,false
msn,22,es,,msn-2.2.1053-es.exe,false
msn,140,et,escargot-wlm-14.0.8117.0416-et.exe,wlm-14.0.8117.0416-et.exe,false
msn,85,et,escargot-wlm-8.5.1302-et.msi,wlm-8.5.1302-et.msi,false
msn,81,et,escargot-wlm-8.1.0178-et.msi,wlm-8.1.0178-et.exe,false
msn,140,eu,escargot-wlm-14.0.8117.0416-eu.exe,wlm-14.0.8117.0416-eu.exe,false
msn,140,fi,escargot-wlm-14.0.8117.0416-fi.exe,wlm-14.0.8117.0416-fi.exe,false
msn,85,fi,escargot-wlm-8.5.1302-fi.msi,wlm-8.5.1302-fi.msi,false
msn,81,fi,escargot-wlm-8.1.0178-fi.msi,wlm-8.1.0178-fi.exe,false
msn,75,fi,escargot-msn-7.5.0324-fi.msi,msn-7.5.0324-fi.exe,false
msn,70,fi,escargot-msn-7.0.0777-fi.msi,msn-7.0.0777-fi.exe,false
msn,50,fi,escargot-msn-5.0.0575-fi.msi,msn-5.0.0575-fi.exe,false
msn,45,fi,,msn-4.5.0127-fi.exe,false
msn,36,fi,,msn-3.6.0039-fi.exe,false
msn,140,fr,escargot-wlm-14.0.8117.0416-fr.exe,wlm-14.0.8117.0416-fr.exe,false
msn,85,fr,escargot-wlm-8.5.1302-fr.msi,wlm-8.5.1302-fr.msi,false
msn,81,fr,escargot-wlm-8.1.0178-fr.msi,wlm-8.1.0178-fr.exe,false
msn,75,fr,escargot-msn-7.5.0324-fr.msi,msn-7.5.0324-fr.exe,false
msn,70,fr,escargot-msn-7.0.0820-fr.msi,msn-7.0.0820-fr.exe,false
msn,62,fr,escargot-msn-6.2.0205-fr.msi,msn-6.2.0205-fr.exe,false
msn,50,fr,escargot-msn-5.0.0575-fr.msi,msn-5.0.0575-fr.exe,false
msn,46,fr,,msn-4.6.0073-fr.exe,false
msn,45,fr,,msn-4.5.0128-fr.exe,false
msn,36,fr,,msn-3.6.0039-fr.exe,false
msn,140,gu,escargot-wlm-14.0.8117.0416-gu.exe,wlm-14.0.8117.0416-gu.exe,false
msn,140,he,escargot-wlm-14.0.8117.0416-he.exe,wlm-14.0.8117.0416-he.exe,false
msn,85,he,escargot-wlm-8.5.1302-he.msi,wlm-8.5.1302-he.msi,false
msn,81,he,escargot-wlm-8.1.0178-he.msi,wlm-8.1.0178-he.exe,false
msn,75,he,escargot-msn-7.5.0324-he.msi,msn-7.5.0324-he.exe,false
msn,70,he,escargot-msn-7.0.0820-he.msi,msn-7.0.0820-he.exe,false
msn,62,he,escargot-msn-6.2.0208-he.msi,msn-6.2.0208-he.exe,false
msn,50,he,escargot-msn-5.0.0575-he.msi,msn-5.0.0575-he.exe,false
msn,46,he,,msn-4.6.0084-he.exe,false
msn,36,he,,msn-3.6.0039-he.exe,false
msn,140,hi,escargot-wlm-14.0.8117.0416-hi.exe,wlm-14.0.8117.0416-hi.exe,false
msn,140,hr,escargot-wlm-14.0.8117.0416-hr.exe,wlm-14.0.8117.0416-hr.exe,false
msn,85,hr,escargot-wlm-8.5.1302-hr.msi,wlm-8.5.1302-hr.msi,false
msn,81,hr,escargot-wlm-8.1.0178-hr.msi,wlm-8.1.0178-hr.exe,false
msn,140,hu,escargot-wlm-14.0.8117.0416-hu.exe,wlm-14.0.8117.0416-hu.exe,false
msn,85,hu,escargot-wlm-8.5.1302-hu.msi,wlm-8.5.1302-hu.msi,false
msn,81,hu,escargot-wlm-8.1.0178-hu.msi,wlm-8.1.0178-hu.exe,false
msn,75,hu,escargot-msn-7.5.0324-hu.msi,msn-7.5.0324-hu.exe,false
msn,70,hu,escargot-msn-7.0.0820-hu.msi,msn-7.0.0820-hu.exe,false
msn,62,hu,escargot-msn-6.2.0137-hu.msi,msn-6.2.0137-hu.exe,false
msn,50,hu,escargot-msn-5.0.0575-hu.msi,msn-5.0.0575-hu.exe,false
msn,46,hu,,msn-4.6.0084-hu.exe,false
msn,140,id,escargot-wlm-14.0.8117.0416-id.exe,wlm-14.0.8117.0416-id.exe,false
msn,140,it,escargot-wlm-14.0.8117.0416-it.exe,wlm-14.0.8117.0416-it.exe,false
msn,85,it,escargot-wlm-8.5.1302-it.msi,wlm-8.5.1302-it.msi,false
msn,81,it,escargot-wlm-8.1.0178-it.msi,wlm-8.1.0178-it.exe,false
msn,75,it,escargot-msn-7.5.0324-it.msi,msn-7.5.0324-it.exe,false
msn,70,it,escargot-msn-7.0.0820-it.msi,msn-7.0.0820-it.exe,false
msn,62,it,escargot-msn-6.2.0205-it.msi,msn-6.2.0205-it.exe,false
msn,50,it,escargot-msn-5.0.0575-it.msi,msn-5.0.0575-it.exe,false
msn,46,it,,msn-4.6.0084-it.exe,false
msn,45,it,,msn-4.5.0127-it.exe,false
msn,36,it,,msn-3.6.0039-it.exe,false
msn,140,ja,escargot-wlm-14.0.8117.0416-ja.exe,wlm-14.0.8117.0416-ja.exe,false
msn,85,ja,escargot-wlm-8.5.1302-ja.msi,wlm-8.5.1302-ja.msi,false
msn,81,ja,escargot-wlm-8.1.0178-ja.msi,wlm-8.1.0178-ja.exe,false
msn,75,ja,escargot-msn-7.5.0324-ja.msi,msn-7.5.0324-ja.exe,false
msn,70,ja,escargot-msn-7.0.0820-ja.msi,msn-7.0.0820-ja.exe,false
msn,62,ja,escargot-msn-6.2.0205-ja.msi,msn-6.2.0205-ja.exe,false
msn,50,ja,escargot-msn-5.0.0575-ja.msi,msn-5.0.0575-ja.exe,false
msn,46,ja,,msn-4.6.0073-ja.exe,false
msn,45,ja,,msn-4.5.0127-ja.exe,false
msn,36,ja,,msn-3.6.0039-ja.exe,false
msn,140,kn,escargot-wlm-14.0.8117.0416-kn.exe,wlm-14.0.8117.0416-kn.exe,false
msn,140,ko,escargot-wlm-14.0.8117.0416-ko.exe,wlm-14.0.8117.0416-ko.exe,false
msn,85,ko,escargot-wlm-8.5.1302-ko.msi,wlm-8.5.1302-ko.msi,false
msn,81,ko,escargot-wlm-8.1.0178-ko.msi,wlm-8.1.0178-ko.exe,false
msn,75,ko,escargot-msn-7.5.0324-ko.msi,msn-7.5.0324-ko.exe,false
msn,70,ko,escargot-msn-7.0.0820-ko.msi,msn-7.0.0820-ko.exe,false
msn,62,ko,escargot-msn-6.2.0137-ko.msi,msn-6.2.0137-ko.exe,false
msn,50,ko,escargot-msn-5.0.0575-ko.msi,msn-5.0.0575-ko.exe,false
msn,45,ko,,msn-4.5.0127-ko.exe,false
msn,36,ko,,msn-3.6.0039-ko.exe,false
msn,140,lt,escargot-wlm-14.0.8117.0416-lt.exe,wlm-14.0.8117.0416-lt.exe,false
msn,85,lt,escargot-wlm-8.5.1302-lt.msi,wlm-8.5.1302-lt.msi,false
msn,140,lv,escargot-wlm-14.0.8117.0416-lv.exe,wlm-14.0.8117.0416-lv.exe,false
msn,85,lv,escargot-wlm-8.5.1302-lv.msi,wlm-8.5.1302-lv.msi,false
msn,140,ml,escargot-wlm-14.0.8117.0416-ml.exe,wlm-14.0.8117.0416-ml.exe,false
msn,140,mr,escargot-wlm-14.0.8117.0416-mr.exe,wlm-14.0.8117.0416-mr.exe,false
msn,140,ms,escargot-wlm-14.0.8117.0416-ms.exe,wlm-14.0.8117.0416-ms.exe,false
msn,140,nb,escargot-wlm-14.0.8117.0416-nb.exe,wlm-14.0.8117.0416-nb.exe,false
msn,85,nb,escargot-wlm-8.5.1302-nb.msi,wlm-8.5.1302-nb.msi,false
msn,140,nl,escargot-wlm-14.0.8117.0416-nl.exe,wlm-14.0.8117.0416-nl.exe,false
msn,85,nl,escargot-wlm-8.5.1302-nl.msi,wlm-8.5.1302-nl.msi,false
msn,81,nl,escargot-wlm-8.1.0178-nl.msi,wlm-8.1.0178-nl.exe,false
msn,75,nl,escargot-msn-7.5.0324-nl.msi,msn-7.5.0324-nl.exe,false
msn,70,nl,escargot-msn-7.0.0820-nl.msi,msn-7.0.0820-nl.exe,false
msn,62,nl,escargot-msn-6.2.0205-nl.msi,msn-6.2.0205-nl.exe,false
msn,50,nl,escargot-msn-5.0.0575-nl.msi,msn-5.0.0575-nl.exe,false
msn,46,nl,,msn-4.6.0073-nl.exe,false
msn,36,nl,,msn-3.6.0039-nl.exe,false
msn,81,no,escargot-wlm-8.1.0178-no.msi,wlm-8.1.0178-no.exe,false
msn,75,no,escargot-msn-7.5.0324-no.msi,msn-7.5.0324-no.exe,false
msn,70,no,escargot-msn-7.0.0777-no.msi,msn-7.0.0777-no.exe,false
msn,50,no,escargot-msn-5.0.0575-no.msi,msn-5.0.0575-no.exe,false
msn,46,no,,msn-4.6.0084-no.exe,false
msn,45,no,,msn-4.5.0127-no.exe,false
msn,36,no,,msn-3.6.0039-no.exe,false
msn,140,pl,escargot-wlm-14.0.8117.0416-pl.exe,wlm-14.0.8117.0416-pl.exe,false
msn,85,pl,escargot-wlm-8.5.1302-pl.msi,wlm-8.5.1302-pl.msi,false
msn,75,pl,escargot-msn-7.5.0324-pl.msi,msn-7.5.0324-pl.exe,false
msn,70,pl,escargot-msn-7.0.0820-pl.msi,msn-7.0.0820-pl.exe,false
msn,62,pl,escargot-msn-6.2.0137-pl.msi,msn-6.2.0137-pl.exe,false
msn,50,pl,escargot-msn-5.0.0575-pl.msi,msn-5.0.0575-pl.exe,false
msn,46,pl,,msn-4.6.0073-pl.exe,false
msn,140,pt-br,escargot-wlm-14.0.8117.0416-pt-br.exe,wlm-14.0.8117.0416-pt-br.exe,false
msn,85,pt-br,escargot-wlm-8.5.1302-pt-br.msi,wlm-8.5.1302-pt-br.msi,false
msn,81,pt-br,escargot-wlm-8.1.0178-pt-br.msi,wlm-8.1.0178-pt-br.exe,false
msn,75,pt-br,escargot-msn-7.5.0324-pt-br.msi,msn-7.5.0324-pt-br.exe,false
msn,70,pt-br,escargot-msn-7.0.0820-pt-br.msi,msn-7.0.0820-pt-br.exe,false
msn,62,pt-br,escargot-msn-6.2.0205-pt-br.msi,msn-6.2.0205-pt-br.exe,false
msn,50,pt-br,escargot-msn-5.0.0575-pt-br.msi,msn-5.0.0575-pt-br.exe,false
msn,46,pt-br,,msn-4.6.0084-pt-br.exe,false
msn,36,pt-br,,msn-3.6.0039-pt-br.exe,false
msn,140,pt-pt,escargot-wlm-14.0.8117.0416-pt-pt.exe,wlm-14.0.8117.0416-pt-pt.exe,false
msn,85,pt-pt,escargot-wlm-8.5.1302-pt-pt.msi,wlm-8.5.1302-pt-pt.msi,false
msn,81,pt-pt,escargot-wlm-8.1.0178-pt-pt.msi,wlm-8.1.0178-pt-pt.exe,false
msn,75,pt-pt,escargot-msn-7.5.0324-pt-pt.msi,msn-7.5.0324-pt-pt.exe,false
msn,70,pt-pt,escargot-msn-7.0.0820-pt-pt.msi,msn-7.0.0820-pt-pt.exe,false
msn,62,pt-pt,escargot-msn-6.2.0137-pt-pt.msi,msn-6.2.0137-pt-pt.exe,false
msn,50,pt-pt,escargot-msn-5.0.0575-pt-pt.msi,msn-5.0.0575-pt-pt.exe,false
msn,46,pt-pt,,msn-4.6.0073-pt-pt.exe,false
msn,36,pt-pt,,msn-3.6.0026-pt-pt.exe,false
msn,140,ro,escargot-wlm-14.0.8117.0416-ro.exe,wlm-14.0.8117.0416-ro.exe,false
msn,85,ro,escargot-wlm-8.5.1302-ro.msi,wlm-8.5.1302-ro.msi,false
msn,81,ro,escargot-wlm-8.1.0178-ro.msi,wlm-8.1.0178-ro.exe,false
msn,140,ru,escargot-wlm-14.0.8117.0416-ru.exe,wlm-14.0.8117.0416-ru.exe,false
msn,85,ru,escargot-wlm-8.5.1302-ru.msi,wlm-8.5.1302-ru.msi,false
msn,81,ru,escargot-wlm-8.1.0178-ru.msi,wlm-8.1.0178-ru.exe,false
msn,75,ru,escargot-msn-7.5.0324-ru.msi,msn-7.5.0324-ru.exe,false
msn,70,ru,escargot-msn-7.0.0820-ru.msi,msn-7.0.0820-ru.exe,false
msn,62,ru,escargot-msn-6.2.0205-ru.msi,msn-6.2.0205-ru.exe,false
msn,50,ru,escargot-msn-5.0.0575-ru.msi,msn-5.0.0575-ru.exe,false
msn,46,ru,,msn-4.6.0073-ru.exe,false
msn,36,ru,,msn-3.6.0039-ru.exe,false
msn,140,sk,escargot-wlm-14.0.8117.0416-sk.exe,wlm-14.0.8117.0416-sk.exe,false
msn,81,sk,escargot-wlm-8.1.0178-sk.msi,wlm-8.1.0178-sk.exe,false
msn,75,sk,escargot-msn-7.5.0324-sk.msi,msn-7.5.0324-sk.exe,false
msn,70,sk,escargot-msn-7.0.0777-sk.msi,msn-7.0.0777-sk.exe,false
msn,50,sk,escargot-msn-5.0.0575-sk.msi,msn-5.0.0575-sk.exe,false
msn,140,sl,escargot-wlm-14.0.8117.0416-sl.exe,wlm-14.0.8117.0416-sl.exe,false
msn,85,sl,escargot-wlm-8.5.1302-sl.msi,wlm-8.5.1302-sl.msi,false
msn,81,sl,escargot-wlm-8.1.0178-sl.msi,wlm-8.1.0178-sl.exe,false
msn,75,sl,escargot-msn-7.5.0324-sl.msi,msn-7.5.0324-sl.exe,false
msn,70,sl,escargot-msn-7.0.0820-sl.msi,msn-7.0.0820-sl.exe,false
msn,50,sl,escargot-msn-5.0.0575-sl.msi,msn-5.0.0575-sl.exe,false
msn,46,sl,,msn-4.6.0084-sl.exe,false
msn,36,sl,,msn-3.6.0039-sl.exe,false
msn,140,sr-Cyrl,escargot-wlm-14.0.8117.0416-sr-Cyrl.exe,wlm-14.0.8117.0416-sr-Cyrl.exe,false
msn,140,sr-Latn,escargot-wlm-14.0.8117.0416-sr-Latn.exe,wlm-14.0.8117.0416-sr-Latn.exe,false
msn,85,sr-Latn,escargot-wlm-8.5.1302-sr-Latn.msi,wlm-8.5.1302-sr-Latn.msi,false
msn,140,sv,escargot-wlm-14.0.8117.0416-sv.exe,wlm-14.0.8117.0416-sv.exe,false
msn,85,sv,escargot-wlm-8.5.1302-sv.msi,wlm-8.5.1302-sv.msi,false
msn,81,sv,escargot-wlm-8.1.0178-sv.msi,wlm-8.1.0178-sv.exe,false
msn,75,sv,escargot-msn-7.5.0324-sv.msi,msn-7.5.0324-sv.exe,false
msn,70,sv,escargot-msn-7.0.0820-sv.msi,msn-7.0.0820-sv.exe,false
msn,62,sv,escargot-msn-6.2.0208-sv.msi,msn-6.2.0208-sv.exe,false
msn,50,sv,escargot-msn-5.0.0575-sv.msi,msn-5.0.0575-sv.exe,false
msn,46,sv,,msn-4.6.0073-sv.exe,false
msn,36,sv,,msn-3.6.0039-sv.exe,false
msn,140,ta,escargot-wlm-14.0.8117.0416-ta.exe,wlm-14.0.8117.0416-ta.exe,false
msn,140,te,escargot-wlm-14.0.8117.0416-te.exe,wlm-14.0.8117.0416-te.exe,false
msn,140,th,escargot-wlm-14.0.8117.0416-th.exe,wlm-14.0.8117.0416-th.exe,false
msn,85,th,escargot-wlm-8.5.1302-th.msi,wlm-8.5.1302-th.msi,false
msn,81,th,escargot-wlm-8.1.0178-th.msi,wlm-8.1.0178-th.exe,false
msn,140,tr,escargot-wlm-14.0.8117.0416-tr.exe,wlm-14.0.8117.0416-tr.exe,false
msn,85,tr,escargot-wlm-8.5.1302-tr.msi,wlm-8.5.1302-tr.msi,false
msn,81,tr,escargot-wlm-8.1.0178-tr.msi,wlm-8.1.0178-tr.exe,false
msn,75,tr,escargot-msn-7.5.0324-tr.msi,msn-7.5.0324-tr.exe,false
msn,70,tr,escargot-msn-7.0.0820-tr.msi,msn-7.0.0820-tr.exe,false
msn,62,tr,escargot-msn-6.2.0208-tr.msi,msn-6.2.0208-tr.exe,false
msn,50,tr,escargot-msn-5.0.0575-tr.msi,msn-5.0.0575-tr.exe,false
msn,46,tr,,msn-4.6.0084-tr.exe,false
msn,36,tr,,msn-3.6.0039-tr.exe,false
msn,140,uk,escargot-wlm-14.0.8117.0416-uk.exe,wlm-14.0.8117.0416-uk.exe,false
msn,85,uk,escargot-wlm-8.5.1302-uk.msi,wlm-8.5.1302-uk.msi,false
msn,81,uk,escargot-wlm-8.1.0178-uk.msi,wlm-8.1.0178-uk.exe,false
msn,140,vi,escargot-wlm-14.0.8117.0416-vi.exe,wlm-14.0.8117.0416-vi.exe,false
msn,140,zh-chs,escargot-wlm-14.0.8117.0416-zh-chs.exe,wlm-14.0.8117.0416-zh-chs.exe,false
msn,85,zh-chs,escargot-wlm-8.5.1302-zh-chs.msi,wlm-8.5.1302-zh-chs.msi,false
msn,81,zh-chs,escargot-wlm-8.1.0178-zh-cn.msi,wlm-8.1.0178-zh-cn.exe,false
msn,75,zh-chs,escargot-msn-7.5.0324-zh-cn.msi,msn-7.5.0324-zh-cn.exe,false
msn,70,zh-chs,escargot-msn-7.0.0820-zh-cn.msi,msn-7.0.0820-zh-cn.exe,false
msn,62,zh-chs,escargot-msn-6.2.0205-zh-cn.msi,msn-6.2.0205-zh-cn.exe,false
msn,50,zh-chs,escargot-msn-5.0.0575-zh-cn.msi,msn-5.0.0575-zh-cn.exe,false
msn,46,zh-chs,,msn-4.6.0073-zh-cn.exe,false
msn,45,zh-chs,,msn-4.5.0127-zh-cn.exe,false
msn,36,zh-chs,,msn-3.6.0039-zh-cn.exe,false
msn,140,zh-cht,escargot-wlm-14.0.8117.0416-zh-cht.exe,wlm-14.0.8117.0416-zh-cht.exe,false
msn,85,zh-cht,escargot-wlm-8.5.1302-zh-cht.msi,wlm-8.5.1302-zh-cht.msi,false
msn,81,zh-cht,escargot-wlm-8.1.0178-zh-tw.msi,wlm-8.1.0178-zh-tw.exe,false
msn,75,zh-cht,escargot-msn-7.5.0324-zh-tw.msi,msn-7.5.0324-zh-tw.exe,false
msn,70,zh-cht,escargot-msn-7.0.0820-zh-tw.msi,msn-7.0.0820-zh-tw.exe,false
msn,62,zh-cht,escargot-msn-6.2.0205-zh-tw.msi,msn-6.2.0205-zh-tw.exe,false
msn,50,zh-cht,escargot-msn-5.0.0575-zh-tw.msi,msn-5.0.0575-zh-tw.exe,false
msn,46,zh-cht,,msn-4.6.0073-zh-tw.exe,false
msn,45,zh-cht,,msn-4.5.0127-zh-tw.exe,false
msn,36,zh-cht,,msn-3.6.0039-zh-tw.exe,false
yahoo,55,en,,yahoo-5.5.0.1254-en.exe,false
yahoo,50,en,,yahoo-5.0.0.1058-en.exe,false
